<svg width="84" height="85" viewBox="0 0 84 85" fill="none" xmlns="http://www.w3.org/2000/svg">
<path d="M23.1373 3.08075L3.44984 10.9584C2.95188 11.1589 2.62599 11.6419 2.62696 12.1786V14.8037C2.62985 15.5245 3.21349 16.108 3.93434 16.1109H7.87696V34.4912H6.55934C5.83849 34.4938 5.25485 35.0777 5.25196 35.7985V39.7437H3.93434C3.21349 39.7462 2.62984 40.3302 2.62696 41.051V46.301C2.62421 47.0258 3.20949 47.6157 3.93434 47.6186H43.3093C44.0382 47.6212 44.6297 47.0298 44.627 46.301V41.051C44.6243 40.3262 44.0342 39.7409 43.3093 39.7437H42.002V35.7985C41.9993 35.0737 41.4092 34.4884 40.6843 34.4912H39.377V16.1109H43.3093C44.0342 16.1135 44.6241 15.5285 44.627 14.8037V12.1786C44.6279 11.6419 44.302 11.1587 43.8041 10.9584L24.1166 3.08075C23.756 2.9364 23.4168 2.96914 23.1373 3.08075ZM23.6218 5.71609L42.002 13.0682V13.4963H5.25197V13.0682L23.6218 5.71609ZM51.1869 10.8712H66.9395C69.1436 10.8712 70.8744 12.5996 70.8744 14.8037V30.5587C70.8347 32.348 73.5391 32.348 73.4994 30.5587V14.8037C73.4994 11.1907 70.5524 8.24363 66.9395 8.24363H51.1241C49.3096 8.32747 49.4352 10.955 51.187 10.8712H51.1869ZM10.5045 16.1109H13.1295V34.4912H10.5045V16.1109ZM15.7443 16.1109H19.6895V34.4912H15.7443L15.7443 16.1109ZM22.3145 16.1109H24.9395V34.4912H22.3145L22.3145 16.1109ZM27.5645 16.1109H31.4994V34.4912H27.5645V16.1109ZM34.1244 16.1109H36.7494V34.4912H34.1244L34.1244 16.1109ZM7.87697 37.1161H39.377V39.7437H35.4318C33.7202 39.7833 33.7202 42.3307 35.4318 42.3687H42.002V44.9936H5.25197V42.3687H30.192C31.9036 42.329 31.9036 39.7817 30.192 39.7437H7.87697V37.1161ZM78.752 44.9936V77.7984C78.752 78.5483 78.1816 79.1187 77.4318 79.1187H53.8119C53.0621 79.1187 52.5045 78.5483 52.5045 77.7984V76.491H74.8068C76.5572 76.491 76.5572 73.8662 74.8068 73.8662H52.5045V48.926C52.5442 47.1367 49.8398 47.1367 49.8795 48.926V77.7984C49.8795 79.9571 51.6532 81.7437 53.8119 81.7437H77.4318C79.5905 81.7437 81.377 79.9571 81.377 77.7984V41.051C81.377 38.8923 79.5905 37.1161 77.4318 37.1161H53.8119C51.6532 37.1161 49.8795 38.8924 49.8795 41.051V43.6761C49.8797 44.3989 50.4641 44.9855 51.1869 44.991L78.752 44.9936ZM53.8119 39.7437H77.4318C78.1816 39.7437 78.752 40.3012 78.752 41.051V42.3687H52.5045V41.051C52.5045 40.3012 53.0621 39.7437 53.8119 39.7437ZM65.6039 47.6008C64.8826 47.6156 64.3063 48.2046 64.3145 48.926V50.4308C62.0598 51.0176 60.3719 53.0557 60.3719 55.486C60.3719 58.3699 62.7379 60.7385 65.6219 60.7385C67.0872 60.7385 68.2469 61.8983 68.2469 63.3636C68.2469 64.8289 67.0872 65.9885 65.6219 65.9885C64.1565 65.9885 62.9969 64.8289 62.9969 63.3636C62.9592 61.6519 60.4097 61.6519 60.3719 63.3636C60.3719 65.7939 62.0598 67.8399 64.3145 68.429V69.9337C64.3145 71.6841 66.9395 71.6841 66.9395 69.9337V68.4264C69.1893 67.834 70.8744 65.7904 70.8744 63.3636C70.8744 60.4796 68.5058 58.1109 65.6219 58.1109C64.1565 58.1109 62.9969 56.9514 62.9969 55.486C62.9969 54.0207 64.1565 52.8713 65.6219 52.8713C67.0872 52.8713 68.2469 54.0207 68.2469 55.486C68.2469 57.2377 70.8744 57.2377 70.8744 55.486C70.8744 53.0592 69.1893 51.0236 66.9395 50.4334V48.926C66.9474 48.1856 66.3442 47.5869 65.6039 47.6008ZM11.7914 52.8507C11.0706 52.8656 10.496 53.4577 10.5045 54.1787V69.9337C10.5045 73.5467 13.449 76.491 17.0619 76.491H43.3093C45.0986 76.5307 45.0986 73.8264 43.3093 73.8662H17.0619C14.8578 73.8662 13.1295 72.1378 13.1295 69.9337V54.1787C13.1385 53.4376 12.5323 52.8363 11.7914 52.8507H11.7914Z" fill="#FFD530"/>
</svg>
